<?xml version="1.0" encoding="UTF-8" standalone="no"?>
<!DOCTYPE svg PUBLIC "-//W3C//DTD SVG 1.0//EN" "http://www.w3.org/TR/2001/PR-SVG-20010719/DTD/svg10.dtd">
<svg width="61cm" height="43cm" viewBox="34 -5 1207 849" xmlns="http://www.w3.org/2000/svg" xmlns:xlink="http://www.w3.org/1999/xlink">
  <g>
    <rect style="fill: #ffffff" x="128.75" y="130.25" width="112.7" height="36"/>
    <rect style="fill: none; fill-opacity:0; stroke-width: 2; stroke: #000000" x="128.75" y="130.25" width="112.7" height="36"/>
    <text font-size="12.8" style="fill: #000000;text-anchor:middle;font-family:monospace;font-style:normal;font-weight:normal" x="185.1" y="152.25">Coursecodes</text>
  </g>
  <g>
    <rect style="fill: #ffffff" x="447" y="90" width="58.8" height="36"/>
    <rect style="fill: none; fill-opacity:0; stroke-width: 2; stroke: #000000" x="447" y="90" width="58.8" height="36"/>
    <text font-size="12.8" style="fill: #000000;text-anchor:middle;font-family:monospace;font-style:normal;font-weight:normal" x="476.4" y="112">User</text>
  </g>
  <g>
    <rect style="fill: #ffffff" x="297.9" y="281.64" width="81.9" height="36"/>
    <rect style="fill: none; fill-opacity:0; stroke-width: 2; stroke: #000000" x="297.9" y="281.64" width="81.9" height="36"/>
    <text font-size="12.8" style="fill: #000000;text-anchor:middle;font-family:monospace;font-style:normal;font-weight:normal" x="338.85" y="303.64">Student</text>
  </g>
  <g>
    <rect style="fill: #ffffff" x="304.75" y="461.47" width="66.5" height="36"/>
    <rect style="fill: none; fill-opacity:0; stroke-width: 2; stroke: #000000" x="304.75" y="461.47" width="66.5" height="36"/>
    <text font-size="12.8" style="fill: #000000;text-anchor:middle;font-family:monospace;font-style:normal;font-weight:normal" x="338" y="483.47">group</text>
  </g>
  <g>
    <rect style="fill: #ffffff" x="527.25" y="265.196" width="74.2" height="36"/>
    <rect style="fill: none; fill-opacity:0; stroke-width: 2; stroke: #000000" x="527.25" y="265.196" width="74.2" height="36"/>
    <text font-size="12.8" style="fill: #000000;text-anchor:middle;font-family:monospace;font-style:normal;font-weight:normal" x="564.35" y="287.196">Grader</text>
  </g>
  <g>
    <rect style="fill: #ffffff" x="980" y="180" width="51.1" height="36"/>
    <rect style="fill: none; fill-opacity:0; stroke-width: 2; stroke: #000000" x="980" y="180" width="51.1" height="36"/>
    <text font-size="12.8" style="fill: #000000;text-anchor:middle;font-family:monospace;font-style:normal;font-weight:normal" x="1005.55" y="202">Lab</text>
  </g>
  <g>
    <rect style="fill: #ffffff" x="512.25" y="461.22" width="105" height="36"/>
    <rect style="fill: none; fill-opacity:0; stroke-width: 2; stroke: #000000" x="512.25" y="461.22" width="105" height="36"/>
    <rect style="fill: none; fill-opacity:0; stroke-width: 2; stroke: #000000" x="517.25" y="466.22" width="95" height="26"/>
    <text font-size="12.8" style="fill: #000000;text-anchor:middle;font-family:monospace;font-style:normal;font-weight:normal" x="564.75" y="483.22">submission</text>
  </g>
  <g>
    <polygon style="fill: #ffffff" points="478.65,206.75 532.55,206.75 505.6,162.75 "/>
    <polygon style="fill: none; fill-opacity:0; stroke-width: 2; stroke: #000000" points="478.65,206.75 532.55,206.75 505.6,162.75 "/>
    <text font-size="12.8" style="fill: #000000;text-anchor:middle;font-family:sans-serif;font-style:normal;font-weight:normal" x="505.6" y="199.75">
      <tspan x="505.6" y="199.75">ISA</tspan>
    </text>
  </g>
  <g>
    <polygon style="fill: #ffffff" points="420.814,236.75 474.714,236.75 447.764,192.75 "/>
    <polygon style="fill: none; fill-opacity:0; stroke-width: 2; stroke: #000000" points="420.814,236.75 474.714,236.75 447.764,192.75 "/>
    <text font-size="12.8" style="fill: #000000;text-anchor:middle;font-family:sans-serif;font-style:normal;font-weight:normal" x="447.764" y="229.75">
      <tspan x="447.764" y="229.75">ISA</tspan>
    </text>
  </g>
  <polyline style="fill: none; fill-opacity:0; stroke-width: 2; stroke: #000000" points="505.6,206.75 505.6,235.973 564.35,235.973 564.35,265.196 "/>
  <g>
    <polygon style="fill: #ffffff" points="149.75,217.49 185.15,196.25 220.55,217.49 185.15,238.73 "/>
    <polygon style="fill: none; fill-opacity:0; stroke-width: 2; stroke: #000000" points="149.75,217.49 185.15,196.25 220.55,217.49 185.15,238.73 "/>
    <text font-size="12.8" style="fill: #000000;text-anchor:end;font-family:monospace;font-style:normal;font-weight:normal" x="143.75" y="211.49"></text>
    <text font-size="12.8" style="fill: #000000;text-anchor:start;font-family:monospace;font-style:normal;font-weight:normal" x="226.55" y="211.49"></text>
    <text font-size="12.8" style="fill: #000000;text-anchor:middle;font-family:monospace;font-style:normal;font-weight:normal" x="185.15" y="221.49">code</text>
  </g>
  <g>
    <polygon style="fill: #ffffff" points="502,373.92 564.35,336.51 626.7,373.92 564.35,411.33 "/>
    <polygon style="fill: none; fill-opacity:0; stroke-width: 2; stroke: #000000" points="502,373.92 564.35,336.51 626.7,373.92 564.35,411.33 "/>
    <text font-size="12.8" style="fill: #000000;text-anchor:end;font-family:monospace;font-style:normal;font-weight:normal" x="496" y="367.92"></text>
    <text font-size="12.8" style="fill: #000000;text-anchor:start;font-family:monospace;font-style:normal;font-weight:normal" x="632.7" y="367.92"></text>
    <text font-size="12.8" style="fill: #000000;text-anchor:middle;font-family:monospace;font-style:normal;font-weight:normal" x="564.35" y="377.92">assigned to</text>
  </g>
  <polyline style="fill: none; fill-opacity:0; stroke-width: 2; stroke: #000000" points="505.8,126 505.8,144.375 505.6,144.375 505.6,162.75 "/>
  <polyline style="fill: none; fill-opacity:0; stroke-width: 2; stroke: #000000" points="447,126 447,159.375 447.764,159.375 447.764,192.75 "/>
  <g>
    <polyline style="fill: none; fill-opacity:0; stroke-width: 2; stroke: #000000" points="564.35,305.668 564.35,317.728 564.35,317.728 564.35,336.51 "/>
    <polyline style="fill: none; fill-opacity:0; stroke-width: 2; stroke: #000000" points="569.35,313.432 564.35,303.432 559.35,313.432 "/>
  </g>
  <polyline style="fill: none; fill-opacity:0; stroke-width: 2; stroke: #000000" points="564.35,411.33 564.35,431.228 564.75,431.228 564.75,461.22 "/>
  <g>
    <polygon style="fill: #ffffff" points="402,479.36 445.1,453.5 488.2,479.36 445.1,505.22 "/>
    <polygon style="fill: none; fill-opacity:0; stroke-width: 2; stroke: #000000" points="402,479.36 445.1,453.5 488.2,479.36 445.1,505.22 "/>
    <polygon style="fill: none; fill-opacity:0; stroke-width: 2; stroke: #000000" points="410,479.36 445.1,458.3 480.2,479.36 445.1,500.42 "/>
    <text font-size="12.8" style="fill: #000000;text-anchor:end;font-family:monospace;font-style:normal;font-weight:normal" x="396" y="473.36"></text>
    <text font-size="12.8" style="fill: #000000;text-anchor:start;font-family:monospace;font-style:normal;font-weight:normal" x="494.2" y="473.36"></text>
    <text font-size="12.8" style="fill: #000000;text-anchor:middle;font-family:monospace;font-style:normal;font-weight:normal" x="445.1" y="483.36">submit</text>
  </g>
  <g>
    <polygon style="fill: #ffffff" points="295,384.38 338.1,358.52 381.2,384.38 338.1,410.24 "/>
    <polygon style="fill: none; fill-opacity:0; stroke-width: 2; stroke: #000000" points="295,384.38 338.1,358.52 381.2,384.38 338.1,410.24 "/>
    <text font-size="12.8" style="fill: #000000;text-anchor:end;font-family:monospace;font-style:normal;font-weight:normal" x="289" y="378.38"></text>
    <text font-size="12.8" style="fill: #000000;text-anchor:start;font-family:monospace;font-style:normal;font-weight:normal" x="387.2" y="378.38"></text>
    <text font-size="12.8" style="fill: #000000;text-anchor:middle;font-family:monospace;font-style:normal;font-weight:normal" x="338.1" y="388.38">member</text>
  </g>
  <g>
    <polygon style="fill: #ffffff" points="661.5,250.686 720,215.586 778.5,250.686 720,285.786 "/>
    <polygon style="fill: none; fill-opacity:0; stroke-width: 2; stroke: #000000" points="661.5,250.686 720,215.586 778.5,250.686 720,285.786 "/>
    <text font-size="12.8" style="fill: #000000;text-anchor:end;font-family:monospace;font-style:normal;font-weight:normal" x="655.5" y="244.686"></text>
    <text font-size="12.8" style="fill: #000000;text-anchor:start;font-family:monospace;font-style:normal;font-weight:normal" x="784.5" y="244.686"></text>
    <text font-size="12.8" style="fill: #000000;text-anchor:middle;font-family:monospace;font-style:normal;font-weight:normal" x="720" y="254.686">assignment</text>
  </g>
  <g>
    <polygon style="fill: #ffffff" points="974.344,478.93 1005.89,460 1037.44,478.93 1005.89,497.86 "/>
    <polygon style="fill: none; fill-opacity:0; stroke-width: 2; stroke: #000000" points="974.344,478.93 1005.89,460 1037.44,478.93 1005.89,497.86 "/>
    <polygon style="fill: none; fill-opacity:0; stroke-width: 2; stroke: #000000" points="982.344,478.93 1005.89,464.8 1029.44,478.93 1005.89,493.06 "/>
    <text font-size="12.8" style="fill: #000000;text-anchor:end;font-family:monospace;font-style:normal;font-weight:normal" x="968.344" y="472.93"></text>
    <text font-size="12.8" style="fill: #000000;text-anchor:start;font-family:monospace;font-style:normal;font-weight:normal" x="1043.44" y="472.93"></text>
    <text font-size="12.8" style="fill: #000000;text-anchor:middle;font-family:monospace;font-style:normal;font-weight:normal" x="1005.89" y="482.93">for</text>
  </g>
  <g>
    <ellipse style="fill: #ffffff" cx="521.1" cy="14.5" rx="39.25" ry="18"/>
    <ellipse style="fill: none; fill-opacity:0; stroke-width: 2; stroke: #000000" cx="521.1" cy="14.5" rx="39.25" ry="18"/>
    <text font-size="12.8" style="fill: #000000;text-anchor:middle;font-family:monospace;font-style:normal;font-weight:normal" x="521.1" y="18.5">email</text>
    <line style="fill: none; fill-opacity:0; stroke-width: 2; stroke: #000000" x1="501.85" y1="22.5" x2="540.35" y2="22.5"/>
  </g>
  <g>
    <ellipse style="fill: #ffffff" cx="607.55" cy="63.25" rx="50.8" ry="18"/>
    <ellipse style="fill: none; fill-opacity:0; stroke-width: 2; stroke: #000000" cx="607.55" cy="63.25" rx="50.8" ry="18"/>
    <text font-size="12.8" style="fill: #000000;text-anchor:middle;font-family:monospace;font-style:normal;font-weight:normal" x="607.55" y="67.25">password</text>
  </g>
  <g>
    <ellipse style="fill: #ffffff" cx="208.95" cy="299.25" rx="66.2" ry="18"/>
    <ellipse style="fill: none; fill-opacity:0; stroke-width: 2; stroke: #000000" cx="208.95" cy="299.25" rx="66.2" ry="18"/>
    <text font-size="12.8" style="fill: #000000;text-anchor:middle;font-family:monospace;font-style:normal;font-weight:normal" x="208.95" y="303.25">personnumber</text>
  </g>
  <g>
    <ellipse style="fill: #ffffff" cx="1003.5" cy="97.5" rx="39.25" ry="18"/>
    <ellipse style="fill: none; fill-opacity:0; stroke-width: 2; stroke: #000000" cx="1003.5" cy="97.5" rx="39.25" ry="18"/>
    <text font-size="12.8" style="fill: #000000;text-anchor:middle;font-family:monospace;font-style:normal;font-weight:normal" x="1003.5" y="101.5">title</text>
  </g>
  <g>
    <ellipse style="fill: #ffffff" cx="481.258" cy="525.272" rx="35.4" ry="18"/>
    <ellipse style="fill: none; fill-opacity:0; stroke-width: 2; stroke: #000000" cx="481.258" cy="525.272" rx="35.4" ry="18"/>
    <text font-size="12.8" style="fill: #000000;text-anchor:middle;font-family:monospace;font-style:normal;font-weight:normal" x="481.258" y="529.272">date</text>
    <line style="fill: none; fill-opacity:0; stroke-width: 2; stroke-dasharray: 6; stroke: #000000" x1="465.858" y1="533.272" x2="496.658" y2="533.272"/>
  </g>
  <g>
    <ellipse style="fill: #ffffff" cx="70.9" cy="126" rx="35.4" ry="18"/>
    <ellipse style="fill: none; fill-opacity:0; stroke-width: 2; stroke: #000000" cx="70.9" cy="126" rx="35.4" ry="18"/>
    <text font-size="12.8" style="fill: #000000;text-anchor:middle;font-family:monospace;font-style:normal;font-weight:normal" x="70.9" y="130">code</text>
    <line style="fill: none; fill-opacity:0; stroke-width: 2; stroke: #000000" x1="55.5" y1="134" x2="86.3" y2="134"/>
  </g>
  <polyline style="fill: none; fill-opacity:0; stroke-width: 2; stroke: #000000" points="488.2,479.36 500.225,479.36 500.225,479.22 512.25,479.22 "/>
  <g>
    <polyline style="fill: none; fill-opacity:0; stroke-width: 2; stroke: #000000" points="402,479.36 385.452,479.36 385.452,479.47 375.722,479.47 "/>
    <polyline style="fill: none; fill-opacity:0; stroke-width: 2; stroke: #000000" points="383.486,474.47 373.486,479.47 383.486,484.47 "/>
  </g>
  <g>
    <polyline style="fill: none; fill-opacity:0; stroke-width: 2; stroke: #000000" points="338,456.998 338,435.855 338.1,435.855 338.1,410.24 "/>
    <polyline style="fill: none; fill-opacity:0; stroke-width: 2; stroke: #000000" points="334,451.234 338,459.234 342,451.234 "/>
  </g>
  <polyline style="fill: none; fill-opacity:0; stroke-width: 2; stroke: #000000" points="338.1,358.52 338.1,338.08 338.85,338.08 338.85,317.64 "/>
  <polyline style="fill: none; fill-opacity:0; stroke-width: 2; stroke: #000000" points="601.45,265.196 631.475,265.196 631.475,250.686 661.5,250.686 "/>
  <polyline style="fill: none; fill-opacity:0; stroke-width: 2; stroke: #000000" points="778.5,250.686 809.25,250.686 809.25,318 840,318 "/>
  <g>
    <polyline style="fill: none; fill-opacity:0; stroke-width: 2; stroke: #000000" points="1005.55,220.472 1005.55,374.228 1005.89,374.228 1005.89,460 "/>
    <polyline style="fill: none; fill-opacity:0; stroke-width: 2; stroke: #000000" points="1010.55,228.236 1005.55,218.236 1000.55,228.236 "/>
  </g>
  <polyline style="fill: none; fill-opacity:0; stroke-width: 2; stroke: #000000" points="974.344,478.93 795.797,478.93 795.797,479.22 617.25,479.22 "/>
  <polyline style="fill: none; fill-opacity:0; stroke-width: 2; stroke: #000000" points="447.764,236.75 447.764,259.195 338.85,259.195 338.85,281.64 "/>
  <polyline style="fill: none; fill-opacity:0; stroke-width: 2; stroke: #000000" points="297.9,281.64 297.9,266.99 185.15,266.99 185.15,238.73 "/>
  <polyline style="fill: none; fill-opacity:0; stroke-width: 2; stroke: #000000" points="128.75,148.25 117.525,148.25 117.525,126 106.3,126 "/>
  <g>
    <polyline style="fill: none; fill-opacity:0; stroke-width: 2; stroke: #000000" points="185.1,170.722 185.1,181.25 185.15,181.25 185.15,196.25 "/>
    <polyline style="fill: none; fill-opacity:0; stroke-width: 2; stroke: #000000" points="190.1,178.486 185.1,168.486 180.1,178.486 "/>
  </g>
  <polyline style="fill: none; fill-opacity:0; stroke-width: 2; stroke: #000000" points="297.9,299.64 286.525,299.64 286.525,299.25 275.15,299.25 "/>
  <g>
    <ellipse style="fill: #ffffff" cx="947.35" cy="133.25" rx="43.1" ry="18"/>
    <ellipse style="fill: none; fill-opacity:0; stroke-width: 2; stroke: #000000" cx="947.35" cy="133.25" rx="43.1" ry="18"/>
    <text font-size="12.8" style="fill: #000000;text-anchor:middle;font-family:monospace;font-style:normal;font-weight:normal" x="947.35" y="137.25">number</text>
    <line style="fill: none; fill-opacity:0; stroke-width: 2; stroke: #000000" x1="924.25" y1="141.25" x2="970.45" y2="141.25"/>
  </g>
  <g>
    <ellipse style="fill: #ffffff" cx="1074.6" cy="127" rx="62.35" ry="18"/>
    <ellipse style="fill: none; fill-opacity:0; stroke-width: 2; stroke: #000000" cx="1074.6" cy="127" rx="62.35" ry="18"/>
    <text font-size="12.8" style="fill: #000000;text-anchor:middle;font-family:monospace;font-style:normal;font-weight:normal" x="1074.6" y="131">description</text>
  </g>
  <g>
    <ellipse style="fill: #ffffff" cx="413.15" cy="19" rx="54.65" ry="18"/>
    <ellipse style="fill: none; fill-opacity:0; stroke-width: 2; stroke: #000000" cx="413.15" cy="19" rx="54.65" ry="18"/>
    <text font-size="12.8" style="fill: #000000;text-anchor:middle;font-family:monospace;font-style:normal;font-weight:normal" x="413.15" y="23">last name</text>
  </g>
  <g>
    <ellipse style="fill: #ffffff" cx="328.25" cy="61" rx="58.5" ry="18"/>
    <ellipse style="fill: none; fill-opacity:0; stroke-width: 2; stroke: #000000" cx="328.25" cy="61" rx="58.5" ry="18"/>
    <text font-size="12.8" style="fill: #000000;text-anchor:middle;font-family:monospace;font-style:normal;font-weight:normal" x="328.25" y="65">first name</text>
  </g>
  <g>
    <ellipse style="fill: #ffffff" cx="242.05" cy="494" rx="50.8" ry="18"/>
    <ellipse style="fill: none; fill-opacity:0; stroke-width: 2; stroke: #000000" cx="242.05" cy="494" rx="50.8" ry="18"/>
    <text font-size="12.8" style="fill: #000000;text-anchor:middle;font-family:monospace;font-style:normal;font-weight:normal" x="242.05" y="498">joincode</text>
  </g>
  <line style="fill: none; fill-opacity:0; stroke-width: 2; stroke: #000000" x1="556.75" y1="63.25" x2="505.8" y2="90"/>
  <line style="fill: none; fill-opacity:0; stroke-width: 2; stroke: #000000" x1="521.1" y1="32.5" x2="476.4" y2="90"/>
  <line style="fill: none; fill-opacity:0; stroke-width: 2; stroke: #000000" x1="413.15" y1="37" x2="476.4" y2="90"/>
  <line style="fill: none; fill-opacity:0; stroke-width: 2; stroke: #000000" x1="386.75" y1="61" x2="447" y2="90"/>
  <g>
    <polygon style="fill: #ffffff" points="380.5,372.23 431.3,341.75 482.1,372.23 431.3,402.71 "/>
    <polygon style="fill: none; fill-opacity:0; stroke-width: 2; stroke: #000000" points="380.5,372.23 431.3,341.75 482.1,372.23 431.3,402.71 "/>
    <text font-size="12.8" style="fill: #000000;text-anchor:end;font-family:monospace;font-style:normal;font-weight:normal" x="374.5" y="366.23"></text>
    <text font-size="12.8" style="fill: #000000;text-anchor:start;font-family:monospace;font-style:normal;font-weight:normal" x="488.1" y="366.23"></text>
    <text font-size="12.8" style="fill: #000000;text-anchor:middle;font-family:monospace;font-style:normal;font-weight:normal" x="431.3" y="376.23">submiter</text>
  </g>
  <line style="fill: none; fill-opacity:0; stroke-width: 2; stroke: #000000" x1="431.3" y1="402.71" x2="564.75" y2="461.22"/>
  <line style="fill: none; fill-opacity:0; stroke-width: 2; stroke: #000000" x1="431.3" y1="341.75" x2="379.8" y2="299.64"/>
  <line style="fill: none; fill-opacity:0; stroke-width: 2; stroke: #000000" x1="980" y1="180" x2="947.35" y2="151.25"/>
  <line style="fill: none; fill-opacity:0; stroke-width: 2; stroke: #000000" x1="1005.55" y1="180" x2="1003.5" y2="115.5"/>
  <line style="fill: none; fill-opacity:0; stroke-width: 2; stroke: #000000" x1="1031.1" y1="180" x2="1074.6" y2="145"/>
  <g>
    <ellipse style="fill: #ffffff" cx="241.475" cy="449.75" rx="43.1" ry="18"/>
    <ellipse style="fill: none; fill-opacity:0; stroke-width: 2; stroke: #000000" cx="241.475" cy="449.75" rx="43.1" ry="18"/>
    <text font-size="12.8" style="fill: #000000;text-anchor:middle;font-family:monospace;font-style:normal;font-weight:normal" x="241.475" y="453.75">number</text>
    <line style="fill: none; fill-opacity:0; stroke-width: 2; stroke: #000000" x1="218.375" y1="457.75" x2="264.575" y2="457.75"/>
  </g>
  <line style="fill: none; fill-opacity:0; stroke-width: 2; stroke: #000000" x1="284.574" y1="449.75" x2="304.752" y2="461.47"/>
  <line style="fill: none; fill-opacity:0; stroke-width: 2; stroke: #000000" x1="292.85" y1="494" x2="304.75" y2="479.47"/>
  <g>
    <polygon style="fill: #ffffff" points="681,544 734.9,544 707.95,500 "/>
    <polygon style="fill: none; fill-opacity:0; stroke-width: 2; stroke: #000000" points="681,544 734.9,544 707.95,500 "/>
    <text font-size="12.8" style="fill: #000000;text-anchor:middle;font-family:sans-serif;font-style:normal;font-weight:normal" x="707.95" y="537">
      <tspan x="707.95" y="537">ISA</tspan>
    </text>
  </g>
  <g>
    <rect style="fill: #ffffff" x="620" y="580" width="174.3" height="36"/>
    <rect style="fill: none; fill-opacity:0; stroke-width: 2; stroke: #000000" x="620" y="580" width="174.3" height="36"/>
    <text font-size="12.8" style="fill: #000000;text-anchor:middle;font-family:monospace;font-style:normal;font-weight:normal" x="707.15" y="602">Physical submission</text>
  </g>
  <polyline style="fill: none; fill-opacity:0; stroke-width: 2; stroke: #000000" points="707.95,544 707.95,562 707.15,562 707.15,580 "/>
  <g>
    <polygon style="fill: #ffffff" points="796.124,513.48 846.924,483 897.724,513.48 846.924,543.96 "/>
    <polygon style="fill: none; fill-opacity:0; stroke-width: 2; stroke: #000000" points="796.124,513.48 846.924,483 897.724,513.48 846.924,543.96 "/>
    <text font-size="12.8" style="fill: #000000;text-anchor:end;font-family:monospace;font-style:normal;font-weight:normal" x="790.124" y="507.48"></text>
    <text font-size="12.8" style="fill: #000000;text-anchor:start;font-family:monospace;font-style:normal;font-weight:normal" x="903.724" y="507.48"></text>
    <text font-size="12.8" style="fill: #000000;text-anchor:middle;font-family:monospace;font-style:normal;font-weight:normal" x="846.924" y="517.48">handedTo</text>
  </g>
  <g>
    <polygon style="fill: #ffffff" points="900,801.43 969.05,760 1038.1,801.43 969.05,842.86 "/>
    <polygon style="fill: none; fill-opacity:0; stroke-width: 2; stroke: #000000" points="900,801.43 969.05,760 1038.1,801.43 969.05,842.86 "/>
    <text font-size="9.03111" style="fill: #000000;text-anchor:end;font-family:monospace;font-style:normal;font-weight:normal" x="894" y="795.43"></text>
    <text font-size="9.03111" style="fill: #000000;text-anchor:start;font-family:monospace;font-style:normal;font-weight:normal" x="1044.1" y="795.43"></text>
    <text font-size="9.03111" style="fill: #000000;text-anchor:middle;font-family:monospace;font-style:normal;font-weight:normal" x="969.05" y="804.252">deadline extension</text>
  </g>
  <g>
    <g>
      <g>
        <line style="fill: none; fill-opacity:0; stroke-width: 2; stroke: #000000" x1="723.25" y1="60.359" x2="754.778" y2="60.359"/>
        <polyline style="fill: none; fill-opacity:0; stroke-width: 2; stroke: #000000" points="747.014,65.359 757.014,60.359 747.014,55.359 "/>
      </g>
      <text font-size="12.8" style="fill: #000000;text-anchor:start;font-family:sans-serif;font-style:normal;font-weight:normal" x="782.25" y="64.809">
        <tspan x="782.25" y="64.809">many-to-exactly-one</tspan>
      </text>
    </g>
    <g>
      <line style="fill: none; fill-opacity:0; stroke-width: 2; stroke: #000000" x1="724.486" y1="12.05" x2="760.486" y2="12.05"/>
      <text font-size="12.8" style="fill: #000000;text-anchor:start;font-family:sans-serif;font-style:normal;font-weight:normal" x="782.25" y="16.5">
        <tspan x="782.25" y="16.5">many-to-many</tspan>
      </text>
    </g>
    <g>
      <g>
        <line style="fill: none; fill-opacity:0; stroke-width: 2; stroke: #000000" x1="723.25" y1="34.5682" x2="749.514" y2="34.5682"/>
        <polygon style="fill: #000000" points="757.014,34.5682 747.014,39.5682 749.514,34.5682 747.014,29.5682 "/>
        <polygon style="fill: none; fill-opacity:0; stroke-width: 2; stroke: #000000" points="757.014,34.5682 747.014,39.5682 749.514,34.5682 747.014,29.5682 "/>
      </g>
      <text font-size="12.8" style="fill: #000000;text-anchor:start;font-family:sans-serif;font-style:normal;font-weight:normal" x="782.25" y="39.0182">
        <tspan x="782.25" y="39.0182">many-to-at-most-one</tspan>
      </text>
    </g>
  </g>
  <g>
    <ellipse style="fill: #ffffff" cx="764.35" cy="195" rx="43.1" ry="18"/>
    <ellipse style="fill: none; fill-opacity:0; stroke-width: 2; stroke: #000000" cx="764.35" cy="195" rx="43.1" ry="18"/>
    <text font-size="12.8" style="fill: #000000;text-anchor:middle;font-family:monospace;font-style:normal;font-weight:normal" x="764.35" y="199">weight</text>
  </g>
  <g>
    <rect style="fill: #ffffff" x="840" y="300" width="143.5" height="36"/>
    <rect style="fill: none; fill-opacity:0; stroke-width: 2; stroke: #000000" x="840" y="300" width="143.5" height="36"/>
    <text font-size="12.8" style="fill: #000000;text-anchor:middle;font-family:monospace;font-style:normal;font-weight:normal" x="911.75" y="322">RandomGraderLab</text>
  </g>
  <g>
    <rect style="fill: #ffffff" x="1020" y="300" width="128.1" height="36"/>
    <rect style="fill: none; fill-opacity:0; stroke-width: 2; stroke: #000000" x="1020" y="300" width="128.1" height="36"/>
    <text font-size="12.8" style="fill: #000000;text-anchor:middle;font-family:monospace;font-style:normal;font-weight:normal" x="1084.05" y="322">CopyGraderLab</text>
  </g>
  <g>
    <polygon style="fill: #ffffff" points="1059,284 1112.9,284 1085.95,240 "/>
    <polygon style="fill: none; fill-opacity:0; stroke-width: 2; stroke: #000000" points="1059,284 1112.9,284 1085.95,240 "/>
    <text font-size="12.8" style="fill: #000000;text-anchor:middle;font-family:sans-serif;font-style:normal;font-weight:normal" x="1085.95" y="277">
      <tspan x="1085.95" y="277">ISA</tspan>
    </text>
  </g>
  <g>
    <polygon style="fill: #ffffff" points="885,284 938.9,284 911.95,240 "/>
    <polygon style="fill: none; fill-opacity:0; stroke-width: 2; stroke: #000000" points="885,284 938.9,284 911.95,240 "/>
    <text font-size="12.8" style="fill: #000000;text-anchor:middle;font-family:sans-serif;font-style:normal;font-weight:normal" x="911.95" y="277">
      <tspan x="911.95" y="277">ISA</tspan>
    </text>
  </g>
  <g>
    <polygon style="fill: #ffffff" points="1140,265.86 1183.1,240 1226.2,265.86 1183.1,291.72 "/>
    <polygon style="fill: none; fill-opacity:0; stroke-width: 2; stroke: #000000" points="1140,265.86 1183.1,240 1226.2,265.86 1183.1,291.72 "/>
    <text font-size="12.8" style="fill: #000000;text-anchor:end;font-family:monospace;font-style:normal;font-weight:normal" x="1134" y="259.86"></text>
    <text font-size="12.8" style="fill: #000000;text-anchor:start;font-family:monospace;font-style:normal;font-weight:normal" x="1232.2" y="259.86"></text>
    <text font-size="12.8" style="fill: #000000;text-anchor:middle;font-family:monospace;font-style:normal;font-weight:normal" x="1183.1" y="269.86">source</text>
  </g>
  <line style="fill: none; fill-opacity:0; stroke-width: 2; stroke: #000000" x1="721.25" y1="195" x2="720" y2="215.586"/>
  <line style="fill: none; fill-opacity:0; stroke-width: 2; stroke: #000000" x1="911.95" y1="284" x2="911.75" y2="300"/>
  <line style="fill: none; fill-opacity:0; stroke-width: 2; stroke: #000000" x1="1085.95" y1="284" x2="1084.05" y2="300"/>
  <line style="fill: none; fill-opacity:0; stroke-width: 2; stroke: #000000" x1="1085.95" y1="240" x2="1031.1" y2="216"/>
  <line style="fill: none; fill-opacity:0; stroke-width: 2; stroke: #000000" x1="911.95" y1="240" x2="980" y2="216"/>
  <path style="fill: none; fill-opacity:0; stroke-width: 2; stroke: #000000" d="M 794.3,598 A 45.56,45.56 0 0 0 846.924,543.96"/>
  <g>
    <path style="fill: none; fill-opacity:0; stroke-width: 2; stroke: #000000" d="M 846.924,483 A 534.507,534.507 0 0 0 605.592,284.883"/>
    <polyline style="fill: none; fill-opacity:0; stroke-width: 2; stroke: #000000" points="614.668,283.126 603.524,284.031 610.935,292.403 "/>
  </g>
  <path style="fill: none; fill-opacity:0; stroke-width: 2; stroke: #000000" d="M 707.95,500 A 110.096,110.096 0 0 0 617.25,479.22"/>
  <polyline style="fill: none; fill-opacity:0; stroke-width: 2; stroke: #000000" points="338,497.47 338,800 900,800 900,801.43 "/>
  <polyline style="fill: none; fill-opacity:0; stroke-width: 2; stroke: #000000" points="1038.1,801.43 1240,801.43 1240,180 1031.1,180 "/>
  <line style="fill: none; fill-opacity:0; stroke-width: 2; stroke: #000000" x1="512.25" y1="497.22" x2="481.258" y2="507.272"/>
  <g>
    <polyline style="fill: none; fill-opacity:0; stroke-width: 2; stroke: #000000" points="1183.1,240 1107.1,240 1107.1,198 1035.57,198 "/>
    <polyline style="fill: none; fill-opacity:0; stroke-width: 2; stroke: #000000" points="1043.34,193 1033.34,198 1043.34,203 "/>
  </g>
  <polyline style="fill: none; fill-opacity:0; stroke-width: 2; stroke: #000000" points="1148.1,318 1183.1,318 1183.1,291.72 "/>
  <g>
    <rect style="fill: #ffffff" x="531.556" y="617.574" width="58.8" height="36"/>
    <rect style="fill: none; fill-opacity:0; stroke-width: 2; stroke: #000000" x="531.556" y="617.574" width="58.8" height="36"/>
    <rect style="fill: none; fill-opacity:0; stroke-width: 2; stroke: #000000" x="536.556" y="622.574" width="48.8" height="26"/>
    <text font-size="12.8" style="fill: #000000;text-anchor:middle;font-family:monospace;font-style:normal;font-weight:normal" x="560.956" y="639.574">File</text>
  </g>
  <g>
    <ellipse style="fill: #ffffff" cx="630.8" cy="718" rx="50.8" ry="18"/>
    <ellipse style="fill: none; fill-opacity:0; stroke-width: 2; stroke: #000000" cx="630.8" cy="718" rx="50.8" ry="18"/>
    <text font-size="12.8" style="fill: #000000;text-anchor:middle;font-family:monospace;font-style:normal;font-weight:normal" x="630.8" y="722">filename</text>
    <line style="fill: none; fill-opacity:0; stroke-width: 2; stroke: #000000" x1="600" y1="726" x2="661.6" y2="726"/>
  </g>
  <g>
    <polygon style="fill: #ffffff" points="501.656,555.1 560.156,520 618.656,555.1 560.156,590.2 "/>
    <polygon style="fill: none; fill-opacity:0; stroke-width: 2; stroke: #000000" points="501.656,555.1 560.156,520 618.656,555.1 560.156,590.2 "/>
    <polygon style="fill: none; fill-opacity:0; stroke-width: 2; stroke: #000000" points="509.656,555.1 560.156,524.8 610.656,555.1 560.156,585.4 "/>
    <text font-size="12.8" style="fill: #000000;text-anchor:end;font-family:monospace;font-style:normal;font-weight:normal" x="495.656" y="549.1"></text>
    <text font-size="12.8" style="fill: #000000;text-anchor:start;font-family:monospace;font-style:normal;font-weight:normal" x="624.656" y="549.1"></text>
    <text font-size="12.8" style="fill: #000000;text-anchor:middle;font-family:monospace;font-style:normal;font-weight:normal" x="560.156" y="559.1">belongs to</text>
  </g>
  <g>
    <line style="fill: none; fill-opacity:0; stroke-width: 2; stroke: #000000" x1="560.156" y1="520" x2="563.866" y2="501.604"/>
    <polyline style="fill: none; fill-opacity:0; stroke-width: 2; stroke: #000000" points="567.232,510.203 564.308,499.412 557.43,508.226 "/>
  </g>
  <line style="fill: none; fill-opacity:0; stroke-width: 2; stroke: #000000" x1="560.156" y1="590.2" x2="560.956" y2="617.574"/>
  <g>
    <polygon style="fill: #ffffff" points="120,636.41 182.35,599 244.7,636.41 182.35,673.82 "/>
    <polygon style="fill: none; fill-opacity:0; stroke-width: 2; stroke: #000000" points="120,636.41 182.35,599 244.7,636.41 182.35,673.82 "/>
    <text font-size="12.8" style="fill: #000000;text-anchor:end;font-family:monospace;font-style:normal;font-weight:normal" x="114" y="630.41"></text>
    <text font-size="12.8" style="fill: #000000;text-anchor:start;font-family:monospace;font-style:normal;font-weight:normal" x="250.7" y="630.41"></text>
    <text font-size="12.8" style="fill: #000000;text-anchor:middle;font-family:monospace;font-style:normal;font-weight:normal" x="182.35" y="640.41">uploaded by</text>
  </g>
  <line style="fill: none; fill-opacity:0; stroke-width: 2; stroke: #000000" x1="531.556" y1="635.574" x2="244.7" y2="636.41"/>
  <g>
    <polyline style="fill: none; fill-opacity:0; stroke-width: 2; stroke: #000000" points="182.35,599 182.35,360 297.9,360 297.9,322.112 "/>
    <polyline style="fill: none; fill-opacity:0; stroke-width: 2; stroke: #000000" points="302.9,329.876 297.9,319.876 292.9,329.876 "/>
  </g>
  <g>
    <ellipse style="fill: #ffffff" cx="642.35" cy="758" rx="62.35" ry="18"/>
    <ellipse style="fill: none; fill-opacity:0; stroke-width: 2; stroke: #000000" cx="642.35" cy="758" rx="62.35" ry="18"/>
    <text font-size="12.8" style="fill: #000000;text-anchor:middle;font-family:monospace;font-style:normal;font-weight:normal" x="642.35" y="762">upload date</text>
  </g>
  <polyline style="fill: none; fill-opacity:0; stroke-width: 2; stroke: #000000" points="560.956,653.574 560.956,674.574 560,674.574 560,718 580,718 "/>
  <polyline style="fill: none; fill-opacity:0; stroke-width: 2; stroke: #000000" points="560.956,653.574 560.956,674.574 560,674.574 560,758 580,758 "/>
</svg>
